11848: 18:15:26.357 - ---
11848: 18:15:26.357 - Service: "Photon Socket Server" starting
11848: 18:15:26.357 - Config File: E:\UnityProject\UL_Prototype\Photon_4_EZServer\deploy\bin_Win64\PhotonServer.config
11848: 18:15:26.359 - Will produce at most: 10 crash dumps
11848: 18:15:26.359 - Service shutting down
11848: 18:15:26.360 - Service shut down complete
