#key,Name,HP,ATK,DEF,Skill_1,Skill_2,Skill_3,Skill_4
##string,string,int,int,int,string,string,string,string
char_1,char_1,14,5,5,skill_1,skill_2,skill_3,0
char_2,char_2,13,4,5,skill_4,skill_5,skill_6,0
char_3,char_3,11,6,4,skill_7,skill_8,skill_9,0
char_4,char_4,13,4,5,skill_10,skill_11,skill_12,0
char_5,char_5,11,6,4,skill_13,skill_14,skill_15,0
char_6,char_6,15,3,6,skill_16,skill_17,skill_18,0
char_7,char_7,12,3,7,skill_19,skill_20,skill_21,0
char_8,char_8,10,5,8,skill_22,skill_23,skill_24,0
