#key,Top_Fun,Top_Num,Bot_Fun,Bot_Num,Count,card_image
##string,string,int,string,int,int,string
card_1,move,1,gun,1,6,m1g1
card_2,move,1,gun,2,2,m1g2
card_3,move,1,gun,3,2,m1g3
card_4,move,1,shield,1,6,m1d1
card_5,move,1,shield,2,2,m1d2
card_6,move,1,shield,3,1,m1d3
card_7,move,2,special,3,3,m2p3
card_8,sword,1,shield,1,4,s1d1
card_9,sword,2,shield,1,2,s2d1
card_10,sword,2,shield,2,2,s2d2
card_11,sword,3,shield,3,2,s3d3
card_12,shield,5,shield,5,1,d5d5
card_13,sword,1,gun,1,4,s1g1
card_14,sword,2,gun,1,2,s2g1
card_15,sword,2,gun,2,2,s2g2
card_16,sword,3,gun,3,2,s3g3
card_17,sword,6,sword,6,1,s6s6
card_18,sword,1,special,1,1,s1p1
card_19,sword,2,special,1,1,s2p1
card_20,sword,4,special,1,2,s4p1
card_21,sword,5,special,2,2,s5p2
card_22,gun,4,gun,4,1,g4g4
card_23,gun,2,special,1,1,g2p1
card_24,gun,3,special,2,1,g3p2
card_25,gun,4,special,1,2,g4p1
card_26,gun,5,special,2,2,g5p2
card_27,sword,1,sword,1,0,s1
card_28,sword,2,sword,2,0,s2
card_29,sword,3,sword,3,0,s3
card_30,sword,4,sword,4,0,s4
card_31,gun,1,gun,1,0,g1
card_32,gun,2,gun,2,0,g2
card_33,gun,3,gun,3,0,g3
card_34,gun,4,gun,4,0,g4
card_35,shield,1,shield,1,0,d1
card_36,shield,2,shield,2,0,d2
card_37,shield,3,shield,3,0,d3
card_38,shield,4,shield,4,0,d4
card_39,move,1,move,1,0,m1
card_40,move,2,move,2,0,m2
card_41,special,1,special,1,0,p1
card_42,special,2,special,2,0,p2
card_43,special,3,special,3,0,p3
card_44,move,1,special,1,0,m1p1
card_45,gun,3,special,1,0,g3p1
card_46,sword,3,special,1,0,s3p1
card_47,move,1,sword,3,0,m1s3
